bohrium.core
============

.. automodule:: bohrium.core

   
   
   .. rubric:: Functions

   .. autosummary::
   
      add_docstring
      add_newdoc
      alen
      all
      allclose
      alltrue
      alterdot
      amax
      amin
      angle
      any
      append
      apply_along_axis
      apply_over_axes
      arange
      argmax
      argmin
      argsort
      argwhere
      around
      array
      array2string
      array_equal
      array_equiv
      array_repr
      array_split
      array_str
      asanyarray
      asarray
      asarray_chkfinite
      ascontiguousarray
      asfarray
      asfortranarray
      asmatrix
      asscalar
      atleast_1d
      atleast_2d
      atleast_3d
      average
      bartlett
      base_repr
      binary_repr
      bincount
      blackman
      bmat
      broadcast_arrays
      byte_bounds
      can_cast
      choose
      clip
      column_stack
      common_type
      compare_chararrays
      compress
      concatenate
      convolve
      copy
      corrcoef
      correlate
      count_nonzero
      cov
      cross
      cumprod
      cumproduct
      cumsum
      datetime_data
      deg2rad
      delete
      deprecate
      deprecate_with_doc
      diag
      diag_indices
      diag_indices_from
      diagflat
      diagonal
      diff
      digitize
      disp
      dot
      dsplit
      dstack
      ediff1d
      einsum
      empty
      empty_like
      expand_dims
      extract
      eye
      fastCopyAndTranspose
      fft
      fft2
      fill_diagonal
      find_common_type
      fix
      flatnonzero
      flatten
      fliplr
      flipud
      frombuffer
      fromfile
      fromfunction
      fromiter
      frompyfunc
      fromregex
      fromstring
      fv
      genfromtxt
      get_array_wrap
      get_include
      get_numarray_include
      get_printoptions
      getbuffer
      getbufsize
      geterr
      geterrcall
      geterrobj
      gradient
      hamming
      hanning
      histogram
      histogram2d
      histogramdd
      hsplit
      hstack
      hypot
      i0
      identity
      imag
      in1d
      indices
      info
      inner
      insert
      int_asbuffer
      interp
      intersect1d
      ipmt
      irr
      iscomplex
      iscomplexobj
      isfortran
      isneginf
      isposinf
      isreal
      isrealobj
      isscalar
      issctype
      issubclass_
      issubdtype
      issubsctype
      iterable
      ix_
      kaiser
      kron
      lexsort
      linspace
      load
      loads
      loadtxt
      logaddexp
      logaddexp2
      logspace
      lookfor
      mafromtxt
      mask_indices
      mat
      matmul
      maximum_sctype
      may_share_memory
      mean
      median
      meshgrid
      min_scalar_type
      minn
      mintypecode
      mirr
      modf
      msort
      nan_to_num
      nanargmax
      nanargmin
      nanmax
      nanmin
      nansum
      ndfromtxt
      ndim
      nested_iters
      newbuffer
      nonzero
      nper
      npv
      obj2sctype
      ones
      ones_like
      outer
      packbits
      percentile
      piecewise
      pkgload
      place
      pmt
      poly
      polyadd
      polyder
      polydiv
      polyfit
      polyint
      polymul
      polysub
      polyval
      ppmt
      prod
      product
      promote_types
      ptp
      put
      putmask
      pv
      rad2deg
      rank
      rate
      ravel
      ravel_multi_index
      real
      real_if_close
      recfromcsv
      recfromtxt
      repeat
      require
      reshape
      resize
      restoredot
      result_type
      roll
      rollaxis
      roots
      rot90
      round_
      row_stack
      safe_eval
      save
      savetxt
      savez
      savez_compressed
      sctype2char
      searchsorted
      select
      set_numeric_ops
      set_printoptions
      set_string_function
      setbufsize
      setdiff1d
      seterr
      seterrcall
      seterrobj
      setxor1d
      shape
      show_config
      sign
      signbit
      sinc
      size
      sometrue
      sort
      sort_complex
      source
      split
      squeeze
      std
      sum
      swapaxes
      take
      tensordot
      tile
      trace
      transpose
      trapz
      tri
      tril
      tril_indices
      tril_indices_from
      trim_zeros
      triu
      triu_indices
      triu_indices_from
      typename
      union1d
      unique
      unpackbits
      unravel_index
      unwrap
      vander
      var
      vdot
      vsplit
      vstack
      where
      who
      zeros
      zeros_like
   
   

   
   
   .. rubric:: Classes

   .. autosummary::
   
      DataSource
      MachAr
      PackageLoader
      bool8
      bool_
      broadcast
      byte
      bytes_
      cdouble
      cfloat
      character
      chararray
      clongdouble
      clongfloat
      complex128
      complex256
      complex64
      complex_
      complexfloating
      csingle
      datetime64
      datetime_
      double
      dtype
      errstate
      finfo
      flatiter
      flexible
      float128
      float16
      float32
      float64
      float_
      floating
      format_parser
      generic
      half
      iinfo
      inexact
      int0
      int16
      int32
      int64
      int8
      int_
      intc
      integer
      intp
      longcomplex
      longdouble
      longfloat
      longlong
      matrix
      memmap
      ndarray
      ndenumerate
      ndindex
      nditer
      number
      object0
      object_
      poly1d
      recarray
      record
      short
      signedinteger
      single
      singlecomplex
      str_
      string0
      string_
      timedelta64
      timedelta_
      timeinteger
      ubyte
      ufunc
      uint
      uint0
      uint16
      uint32
      uint64
      uint8
      uintc
      uintp
      ulonglong
      unicode0
      unicode_
      unsignedinteger
      ushort
      vectorize
      void
      void0
   
   

   
   
   .. rubric:: Exceptions

   .. autosummary::
   
      ComplexWarning
      RankWarning
   
   